{
	"page": 1,
	"per_page": 6,
	"total": 12,
	"total_pages": 2,
	"data": [
		{
			"id": 1,
			"email": "george.bluth@reqres.in",
			"first_name": "George",
			"last_name": "Bluth",
			"avatar": "https://randomuser.me/api/portraits/men/1.jpg"
		},
		{
			"id": 2,
			"email": "janet.weaver@reqres.in",
			"first_name": "Janet",
			"last_name": "Weaver",
			"avatar": "https://randomuser.me/api/portraits/women/2.jpg"
		},
		{
			"id": 3,
			"email": "emma.wong@reqres.in",
			"first_name": "Emma",
			"last_name": "Wong",
			"avatar": "https://randomuser.me/api/portraits/women/3.jpg"
		},
		{
			"id": 4,
			"email": "eve.holt@reqres.in",
			"first_name": "Eve",
			"last_name": "Holt",
			"avatar": "https://randomuser.me/api/portraits/women/4.jpg"
		},
		{
			"id": 5,
			"email": "charles.morris@reqres.in",
			"first_name": "Charles",
			"last_name": "Morris",
			"avatar": "https://randomuser.me/api/portraits/men/5.jpg"
		},
		{
			"id": 6,
			"email": "tracey.ramos@reqres.in",
			"first_name": "Tracey",
			"last_name": "Ramos",
			"avatar": "https://randomuser.me/api/portraits/women/6.jpg"
		}
	]
}
